S02B0000433A2F55736572732F646A6179652F4F6E6544726976652F43616D7075732F4F44552F53756D6D65AA
S113000034008400040088103400C0008457C018F1
S113001034004401040440293502C0103AD40618BF
S11300203503C010840100013501001134000402BD
S1130030041400423700C0421E09005806FD3F0068
S11300403700C0423400000304C409632601005889
S113005006FB3F00C4FF3F631EFE3F6006F53F0002
S11300603700C0422605005806FD3F003700C01186
S11300704C00C03926FD3F381EF13F58350480102E
S11300803704401237058012CC01804A060700006D
S113009034020003044828630601000006F33F000D
S11300A0C4FF3F631EFE3F6006FC3F0044000003A4
S11300B02000C0522601005B0603000044008002B9
S11300C03500802A062900006000C0522601005B2A
S11300D006030000840080023500802A0623000005
S11300E0A000C0522601005B060300000401800248
S11300F03500802A061D0000E000C0522601005B86
S113010006030000040280023500802A061700005E
S11301102001C0522601005B060300000404800293
S11301203500802A061100006001C0522601005BE0
S113013006030000040880023500802A060B000034
S1130140A001C0522601005B0603000004108002D7
S11301503500802A06050000E001C0522601005B3C
S113016006020000042080023500802A06C83F00F1
S9030000FC
